G0 X0 Y0 Z0
G0 X1 Y2 Z3
G0 X0 Y0 Z0
G0 X1 Y2 Z3
G0 X0 Y0 Z0
G0 X1 Y2 Z3
G0 X0 Y0 Z0
G0 X1 Y2 Z3
G0 X0 Y0 Z0
G0 X1 Y2 Z3
G0 X0 Y0 Z0
G0 X1 Y2 Z3
G0 X0 Y0 Z0
G0 X1 Y2 Z3
G0 X0 Y0 Z0
G0 X1 Y2 Z3
G0 X0 Y0 Z0
G0 X1 Y2 Z3
G0 X0 Y0 Z0
G0 X1 Y2 Z3
G0 X0 Y0 Z0
G0 X1 Y2 Z3
G0 X0 Y0 Z0
G0 X1 Y2 Z3
G0 X0 Y0 Z0
G0 X1 Y2 Z3
G0 X0 Y0 Z0
G0 X1 Y2 Z3
G0 X0 Y0 Z0
G0 X1 Y2 Z3
G0 X0 Y0 Z0
G0 X1 Y2 Z3
G0 X0 Y0 Z0
G0 X1 Y2 Z3
G0 X0 Y0 Z0
G0 X0 Y0 Z0
G0 X1 Y2 Z3
G0 X0 Y0 Z0
G0 X1 Y2 Z3
G0 X0 Y0 Z0
G0 X1 Y2 Z3
G0 X0 Y0 Z0
G0 X1 Y2 Z3
G0 X0 Y0 Z0
G0 X1 Y2 Z3
G0 X0 Y0 Z0
G0 X1 Y2 Z3
G0 X0 Y0 Z0
G0 X1 Y2 Z3
G0 X0 Y0 Z0
G0 X1 Y2 Z3
G0 X0 Y0 Z0
G0 X1 Y2 Z3
G0 X0 Y0 Z0
G0 X1 Y2 Z3
G0 X0 Y0 Z0
G0 X1 Y2 Z3
G0 X0 Y0 Z0
G0 X1 Y2 Z3
G0 X0 Y0 Z0
G0 X1 Y2 Z3
G0 X0 Y0 Z0
G0 X1 Y2 Z3
G0 X0 Y0 Z0
G0 X1 Y2 Z3
G0 X0 Y0 Z0
G0 X1 Y2 Z3
G0 X0 Y0 Z0
G0 X1 Y2 Z3
G0 X0 Y0 Z0
G0 X0 Y0 Z0
G0 X1 Y2 Z3
G0 X0 Y0 Z0
G0 X1 Y2 Z3
G0 X0 Y0 Z0
G0 X1 Y2 Z3
G0 X0 Y0 Z0
G0 X1 Y2 Z3
G0 X0 Y0 Z0
G0 X1 Y2 Z3
G0 X0 Y0 Z0
G0 X1 Y2 Z3
G0 X0 Y0 Z0
G0 X1 Y2 Z3
G0 X0 Y0 Z0
G0 X1 Y2 Z3
G0 X0 Y0 Z0
G0 X1 Y2 Z3
G0 X0 Y0 Z0
G0 X1 Y2 Z3
G0 X0 Y0 Z0
G0 X1 Y2 Z3
G0 X0 Y0 Z0
G0 X1 Y2 Z3
G0 X0 Y0 Z0
G0 X1 Y2 Z3
G0 X0 Y0 Z0
G0 X1 Y2 Z3
G0 X0 Y0 Z0
G0 X1 Y2 Z3
G0 X0 Y0 Z0
G0 X1 Y2 Z3
G0 X0 Y0 Z0
G0 X1 Y2 Z3
G0 X0 Y0 Z0
G0 X0 Y0 Z0
G0 X1 Y2 Z3
G0 X0 Y0 Z0
G0 X1 Y2 Z3
G0 X0 Y0 Z0
G0 X1 Y2 Z3
G0 X0 Y0 Z0
G0 X1 Y2 Z3
G0 X0 Y0 Z0
G0 X1 Y2 Z3
G0 X0 Y0 Z0
G0 X1 Y2 Z3
G0 X0 Y0 Z0
G0 X1 Y2 Z3
G0 X0 Y0 Z0
G0 X1 Y2 Z3
G0 X0 Y0 Z0
G0 X1 Y2 Z3
G0 X0 Y0 Z0
G0 X1 Y2 Z3
G0 X0 Y0 Z0
G0 X1 Y2 Z3
G0 X0 Y0 Z0
G0 X1 Y2 Z3
G0 X0 Y0 Z0
G0 X1 Y2 Z3
G0 X0 Y0 Z0
G0 X1 Y2 Z3
G0 X0 Y0 Z0
G0 X1 Y2 Z3
G0 X0 Y0 Z0
G0 X1 Y2 Z3
G0 X0 Y0 Z0
G0 X1 Y2 Z3
G0 X0 Y0 Z0
G0 X0 Y0 Z0
G0 X1 Y2 Z3
G0 X0 Y0 Z0
G0 X1 Y2 Z3
G0 X0 Y0 Z0
G0 X1 Y2 Z3
G0 X0 Y0 Z0
G0 X1 Y2 Z3
G0 X0 Y0 Z0
G0 X1 Y2 Z3
G0 X0 Y0 Z0
G0 X1 Y2 Z3
G0 X0 Y0 Z0
G0 X1 Y2 Z3
G0 X0 Y0 Z0
G0 X1 Y2 Z3
G0 X0 Y0 Z0
G0 X1 Y2 Z3
G0 X0 Y0 Z0
G0 X1 Y2 Z3
G0 X0 Y0 Z0
G0 X1 Y2 Z3
G0 X0 Y0 Z0
G0 X1 Y2 Z3
G0 X0 Y0 Z0
G0 X1 Y2 Z3
G0 X0 Y0 Z0
G0 X1 Y2 Z3
G0 X0 Y0 Z0
G0 X1 Y2 Z3
G0 X0 Y0 Z0
G0 X1 Y2 Z3
G0 X0 Y0 Z0
G0 X1 Y2 Z3
G0 X0 Y0 Z0
G0 X0 Y0 Z0
G0 X1 Y2 Z3
G0 X0 Y0 Z0
G0 X1 Y2 Z3
G0 X0 Y0 Z0
G0 X1 Y2 Z3
G0 X0 Y0 Z0
G0 X1 Y2 Z3
G0 X0 Y0 Z0
G0 X1 Y2 Z3
G0 X0 Y0 Z0
G0 X1 Y2 Z3
G0 X0 Y0 Z0
G0 X1 Y2 Z3
G0 X0 Y0 Z0
G0 X1 Y2 Z3
G0 X0 Y0 Z0
G0 X1 Y2 Z3
G0 X0 Y0 Z0
G0 X1 Y2 Z3
G0 X0 Y0 Z0
G0 X1 Y2 Z3
G0 X0 Y0 Z0
G0 X1 Y2 Z3
G0 X0 Y0 Z0
G0 X1 Y2 Z3
G0 X0 Y0 Z0
G0 X1 Y2 Z3
G0 X0 Y0 Z0
G0 X1 Y2 Z3
G0 X0 Y0 Z0
G0 X1 Y2 Z3
G0 X0 Y0 Z0
G0 X1 Y2 Z3
G0 X0 Y0 Z0
G0 X0 Y0 Z0
G0 X1 Y2 Z3
G0 X0 Y0 Z0
G0 X1 Y2 Z3
G0 X0 Y0 Z0
G0 X1 Y2 Z3
G0 X0 Y0 Z0
G0 X1 Y2 Z3
G0 X0 Y0 Z0
G0 X1 Y2 Z3
G0 X0 Y0 Z0
G0 X1 Y2 Z3
G0 X0 Y0 Z0
G0 X1 Y2 Z3
G0 X0 Y0 Z0
G0 X1 Y2 Z3
G0 X0 Y0 Z0
G0 X1 Y2 Z3
G0 X0 Y0 Z0
G0 X1 Y2 Z3
G0 X0 Y0 Z0
G0 X1 Y2 Z3
G0 X0 Y0 Z0
G0 X1 Y2 Z3
G0 X0 Y0 Z0
G0 X1 Y2 Z3
G0 X0 Y0 Z0
G0 X1 Y2 Z3
G0 X0 Y0 Z0
G0 X1 Y2 Z3
G0 X0 Y0 Z0
G0 X1 Y2 Z3
G0 X0 Y0 Z0
G0 X1 Y2 Z3
G0 X0 Y0 Z0
G0 X0 Y0 Z0
G0 X1 Y2 Z3
G0 X0 Y0 Z0
G0 X1 Y2 Z3
G0 X0 Y0 Z0
G0 X1 Y2 Z3
G0 X0 Y0 Z0
G0 X1 Y2 Z3
G0 X0 Y0 Z0
G0 X1 Y2 Z3
G0 X0 Y0 Z0
G0 X1 Y2 Z3
G0 X0 Y0 Z0
G0 X1 Y2 Z3
G0 X0 Y0 Z0
G0 X1 Y2 Z3
G0 X0 Y0 Z0
G0 X1 Y2 Z3
G0 X0 Y0 Z0
G0 X1 Y2 Z3
G0 X0 Y0 Z0
G0 X1 Y2 Z3
G0 X0 Y0 Z0
G0 X1 Y2 Z3
G0 X0 Y0 Z0
G0 X1 Y2 Z3
G0 X0 Y0 Z0
G0 X1 Y2 Z3
G0 X0 Y0 Z0
G0 X1 Y2 Z3
G0 X0 Y0 Z0
G0 X1 Y2 Z3
G0 X0 Y0 Z0
G0 X1 Y2 Z3
G0 X0 Y0 Z0
G0 X1 Y2 Z3
